[
  {
    "description": "Speed up ball slowly",
    "type": "patch"
  },
  {
    "description": "Score tracking",
    "type": "patch"
  },
  {
    "description": "End game at 3 points",
    "type": "patch"
  },
  {
    "description": "Reset ball after scoring",
    "type": "patch"
  },
  {
    "description": "Countdown before serving",
    "type": "patch"
  }
]